…
    ## # A tibble: 0 × 8
    ## # ℹ 8 variables: Id <dbl>, Date <date>, Time <chr>, WeightKg <dbl>,
    ## #   WeightPounds <dbl>, BMI <dbl>, IsManualReport <lgl>, LogId <dbl>

``` r
length(unique(overweight_respondents$Id))
```

    ## [1] 5

``` r
overweight_respondents
```

    ## # A tibble: 33 × 8
    ##           Id Date       Time  WeightKg WeightPounds   BMI IsManualReport   LogId
    ##        <dbl> <date>     <chr>    <dbl>        <dbl> <dbl> <lgl>            <dbl>
    ##  1    8.88e9 2016-05-12 6:42…     84           185.  25.1 FALSE          1.46e12
    ##  2    8.88e9 2016-05-04 6:48…     84.4         186.  25.3 FALSE          1.46e12
    ##  3    8.88e9 2016-04-21 6:50…     84.5         186.  25.3 FALSE          1.46e12
    ##  4    8.88e9 2016-04-14 6:48…     84.5         186.  25.3 FALSE          1.46e12
    ##  5    8.88e9 2016-04-13 6:55…     84.9         187.  25.4 FALSE          1.46e12
    ##  6    8.88e9 2016-04-20 6:44…     84.9         187.  25.4 FALSE          1.46e12
    ##  7    8.88e9 2016-04-29 6:49…     84.9         187.  25.4 FALSE          1.46e12
    ##  8    8.88e9 2016-05-03 6:49…     84.9         187.  25.4 FALSE          1.46e12
    ##  9    8.88e9 2016-05-06 6:43…     85           187.  25.4 FALSE          1.46e12
    ## 10    8.88e9 2016-04-26 6:50…     85.1         188.  25.5 FALSE          1.46e12
    ## # ℹ 23 more rows
…
